Sentinel Project Analyses
…
Observations where condition changed

## # A tibble: 21 × 4
##    field.plant.number..from.tag.or…¹ scientific_name n_entries health_conditions
##    <chr>                             <fct>               <int> <chr>            
##  1 POT 1-2                           Malus fusca             2 Poor, Fair       
##  2 POT 1-3                           Malus fusca             2 Fair, Poor       
##  3 POT 11-5                          Alnus rubra             3 Poor, Fair       
##  4 POT 15-1                          Pseudotsuga me…         3 Fair, No Selecti…
##  5 POT 15-5                          Pseudotsuga me…         2 Poor, Fair       
##  6 POT 15-6                          Pseudotsuga me…         2 Fair, Poor       
##  7 POT 5-2                           Fraxinus latif…         2 Fair, Poor       
##  8 POT 9-1                           Acer macrophyl…         2 Fair, Poor       
##  9 WSUP 1-1                          Malus fusca             2 Fair, Poor       
## 10 WSUP 1-2                          Malus fusca             2 Fair, Poor       
## # ℹ 11 more rows
## # ℹ abbreviated name: ¹​field.plant.number..from.tag.or.map.
…
